{
  "name": "web",
  "$schema": "../../node_modules/nx/schemas/project-schema.json",
  "sourceRoot": "apps/web",
  "projectType": "application",
  "targets": {
    "build": {
      "executor": "@nrwl/next:build",
      "outputs": [
        "{options.outputPath}"
      ],
      "defaultConfiguration": "production",
      "options": {
        "root": "apps/web",
        "outputPath": "dist/apps/web"
      },
      "configurations": {
        "development": {
          "outputPath": "apps/web"
        },
        "production": {}
      }
    },
    "serve": {
      "executor": "@nrwl/next:server",
      "defaultConfiguration": "development",
      "options": {
        "buildTarget": "web:build",
        "dev": true
      },
      "configurations": {
        "development": {
          "buildTarget": "web:build:development",
          "dev": true
        },
        "production": {
          "buildTarget": "web:build:production",
          "dev": false
        }
      }
    },
    "export": {
      "executor": "@nrwl/next:export",
      "options": {
        "buildTarget": "web:build:production"
      }
    },
    "test": {
      "executor": "@nrwl/jest:jest",
      "outputs": [
        "coverage/apps/web"
      ],
      "options": {
        "jestConfig": "apps/web/jest.config.ts",
        "passWithNoTests": true
      }
    },
    "lint": {
      "executor": "@nrwl/linter:eslint",
      "outputs": [
        "{options.outputFile}"
      ],
      "options": {
        "lintFilePatterns": [
          "apps/web/**/*.{ts,tsx,js,jsx}"
        ]
      }
    }
  },
  "tags": []
}
